<?xml version="1.0" encoding="utf-8"?>
<!-- Generator: Adobe Illustrator 17.0.0, SVG Export Plug-In . SVG Version: 6.00 Build 0)  -->
<!DOCTYPE svg PUBLIC "-//W3C//DTD SVG 1.1//EN" "http://www.w3.org/Graphics/SVG/1.1/DTD/svg11.dtd">
<svg version="1.1" id="Livello_1" xmlns="http://www.w3.org/2000/svg" xmlns:xlink="http://www.w3.org/1999/xlink" x="0px" y="0px"
	 width="486.816px" height="486.816px" viewBox="0 0 486.816 486.816" enable-background="new 0 0 486.816 486.816"
	 xml:space="preserve">
<g>
	<defs>
		<rect id="SVGID_1_" width="486.816" height="486.816"/>
	</defs>
	<clipPath id="SVGID_2_">
		<use xlink:href="#SVGID_1_"  overflow="visible"/>
	</clipPath>
	<path clip-path="url(#SVGID_2_)" fill="#B1D799" d="M486.816,243.408c0,134.431-108.977,243.408-243.408,243.408
		S0,377.839,0,243.408S108.977,0,243.408,0S486.816,108.977,486.816,243.408"/>
	<path clip-path="url(#SVGID_2_)" fill="#808080" d="M381,200.912V359.85H91.816V200.912c0-10.082,8.168-18.257,18.258-18.257
		h252.672C372.824,182.658,381,190.834,381,200.912"/>
	<rect x="111.816" y="202.658" clip-path="url(#SVGID_2_)" fill="#29ABE2" width="249.184" height="137.191"/>
	<path clip-path="url(#SVGID_2_)" fill="#A9A9A9" d="M362.746,182.658H206.41l4.926,16.161h125.152l0.07,2.168l0.059,1.671H361
		V339.85H254.312l5.609,18.398H381V200.912C381,190.834,372.824,182.658,362.746,182.658"/>
	<path clip-path="url(#SVGID_2_)" fill="#6EC6EB" d="M274.582,302.002h-31.801l0.805,2.645l15.078,2.554
		c0.8,0.133,1.605,0.2,2.406,0.2c2.445,0,4.863-0.618,7.019-1.809L274.582,302.002 M361,202.658h-24.383l3.437,99.344h-24.726
		l-0.145,0.102l-47.863,30.25c-3.813,2.406-8.203,3.664-12.66,3.664c-0.508,0-1.02-0.02-1.532-0.051l1.184,3.883H361V202.658"/>
	<polygon clip-path="url(#SVGID_2_)" fill="#676767" points="211.336,198.819 168.609,198.819 168.476,202.658 212.504,202.658 	"/>
	<path clip-path="url(#SVGID_2_)" fill="#2C84AA" d="M212.504,202.658h-44.028l-1.43,41.36l-1.703,49.273
		c-0.906,0.625-1.828,1.235-2.765,1.813l-50.762,33.082v11.664h58l16.449-10.809c1.953-1.285,4.239-1.965,6.555-1.965
		c0.594,0,1.187,0.043,1.781,0.133l56.535,8.543c0.664,0.102,1.328,0.172,1.992,0.215l-9.542-31.32l-15.602-2.645h14.797
		L212.504,202.658"/>
	<polygon clip-path="url(#SVGID_2_)" fill="#838383" points="336.488,198.819 211.336,198.819 212.504,202.658 336.617,202.658 
		336.558,200.987 	"/>
	<path clip-path="url(#SVGID_2_)" fill="#5B97B0" d="M336.617,202.658H212.504l30.277,99.344h31.801l-6.493,3.59
		c-2.156,1.195-4.578,1.809-7.019,1.809c-0.801,0-1.606-0.067-2.406-0.2l-15.078-2.554l9.542,31.32
		c0.512,0.035,1.024,0.051,1.532,0.051c4.457,0,8.847-1.258,12.66-3.664l47.863-30.246l0.145-0.106h24.726L336.617,202.658"/>
	<polygon clip-path="url(#SVGID_2_)" fill="#8AC466" points="340.054,285.842 165.039,285.842 167.046,227.858 171.914,87.119 
		333.183,87.119 336.558,184.826 	"/>
	<path clip-path="url(#SVGID_2_)" fill="#FCD18B" d="M315.183,291.162l-47.863,30.246c-4.816,3.04-10.559,4.25-16.184,3.403
		l-56.535-8.547c-2.914-0.438-5.883,0.219-8.336,1.832L153.16,339.85h-41.344v-22.61l50.762-33.078
		c4.054-2.504,7.812-5.441,11.191-8.761c3.375-3.328,6.383-7.024,8.949-11.039c4.512-7.055,12.328-11.403,20.707-11.243
		c1.903,0.036,3.805,0.243,5.703,0.618l50.321,10.089c3.941,0.789,6.656,4.262,6.656,8.11c0,0.656-0.082,1.328-0.25,2
		c-1.039,4.176-5.109,6.863-9.359,6.168l-31.719-5.153c-0.418-0.062-0.832-0.101-1.242-0.101c-3.895,0-7.27,2.976-7.629,6.984
		c-0.363,3.992,2.406,7.582,6.359,8.254l36.399,6.168c3.23,0.543,6.558-0.023,9.425-1.605l37.039-20.481
		c1.512-0.832,3.153-1.234,4.766-1.234c3.274,0,6.457,1.625,8.336,4.57C321.175,282.112,319.808,288.24,315.183,291.162"/>
	<path clip-path="url(#SVGID_2_)" fill="#F9DE58" d="M292.988,115.74c-2.828,0-5.125-2.292-5.125-5.125V91.998
		c0-19.285-15.184-35.511-34.465-35.968c-19.859-0.473-36.168,15.55-36.168,35.304v19.281c0,2.829-2.293,5.125-5.125,5.125
		c-2.828,0-5.125-2.292-5.125-5.125V92.1c0-24.953,19.738-45.852,44.688-46.324c25.527-0.485,46.445,20.14,46.445,45.558v19.281
		C298.117,113.444,295.82,115.74,292.988,115.74"/>
	<path clip-path="url(#SVGID_2_)" fill="#4D4D4D" d="M402,358.248c0,12.594-10.207,22.801-22.801,22.801H93.617
		c-6.297,0-11.992-2.551-16.121-6.68c-4.129-4.121-6.68-9.824-6.68-16.121H402"/>
	<path clip-path="url(#SVGID_2_)" fill="#868686" d="M402,358.248H237.808l6.953,22.801h134.438
		C391.793,381.049,402,370.842,402,358.248"/>
	<polygon clip-path="url(#SVGID_2_)" fill="#DB5449" points="212.69,166.249 253.097,186.469 293.565,166.249 293.565,209.384 
		252.981,229.604 212.69,209.384 	"/>
	<polygon clip-path="url(#SVGID_2_)" fill="#D05045" points="212.69,209.385 252.981,229.605 253.097,229.547 253.097,186.469 
		212.69,166.25 	"/>
	<polygon clip-path="url(#SVGID_2_)" fill="#C54B42" points="212.69,170.267 212.69,182.851 252.971,202.646 293.567,182.842 
		293.567,170.266 253.096,190.064 	"/>
	<polygon clip-path="url(#SVGID_2_)" fill="#BB483E" points="212.69,170.267 212.69,182.851 252.971,202.646 253.096,190.064 	"/>
	<polygon clip-path="url(#SVGID_2_)" fill="#EB6258" points="209.993,164.818 253.128,143.356 296.262,164.819 296.238,167.659 
		253.128,189.145 210.009,167.69 	"/>
	<polygon clip-path="url(#SVGID_2_)" fill="#E2574C" points="209.993,164.902 253.096,186.02 296.262,164.902 296.262,178.83 
		252.971,199.95 209.993,178.832 	"/>
	<polygon clip-path="url(#SVGID_2_)" fill="#D65348" points="253.098,186.021 253.097,186.021 209.994,164.903 209.994,178.832 
		252.972,199.951 253.098,199.888 	"/>
	<polygon clip-path="url(#SVGID_2_)" fill="#EFEFEF" points="269.304,178.09 269.304,221.472 280.087,216.099 280.087,172.816 	"/>
	<polygon clip-path="url(#SVGID_2_)" fill="#E8E8E8" points="226.169,172.826 226.169,216.149 236.953,221.558 236.953,178.111 	"/>
	<path clip-path="url(#SVGID_2_)" fill="#FFFFFF" d="M265.459,164.783c8.714-2.243,13.278-6.75,13.278-11.144
		c0-1.229-0.264-2.428-0.877-3.524c-1.44-2.564-4.436-4.095-8.005-4.095c-8.136,0-13.9,7.633-16.733,12.451
		c-2.836-4.814-8.599-12.402-16.717-12.402c-5.147,0-8.883,3.184-8.883,7.506c0,5.504,4.368,9.624,13.089,11.514l-14.443,7.738
		l10.784,5.282l16.374-9.134l15.978,9.116l10.783-5.277L265.459,164.783z M268.016,152.776c1.522,0,2.625,0.851,2.625,2.02
		c0,0.915-0.674,2.347-2.565,3.623c-1.441,0.973-3.975,2.1-8.193,2.454C261.458,157.551,264.353,152.776,268.016,152.776
		 M235.617,154.796c0-1.169,1.102-2.02,2.623-2.02c3.662,0,6.561,4.775,8.134,8.097c-4.219-0.355-6.75-1.481-8.194-2.454
		C236.291,157.143,235.617,155.713,235.617,154.796"/>
</g>
</svg>
