<!-- Generator: Adobe Illustrator 19.0.0, SVG Export Plug-In  -->
<svg version="1.1"
	 xmlns="http://www.w3.org/2000/svg" xmlns:xlink="http://www.w3.org/1999/xlink" xmlns:a="http://ns.adobe.com/AdobeSVGViewerExtensions/3.0/"
	 x="0px" y="0px" width="147.487px" height="65.066px" viewBox="0 0 147.487 65.066"
	 style="enable-background:new 0 0 147.487 65.066;" xml:space="preserve">
<style type="text/css">
	.st0{fill:#004136;}
	.st1{fill:none;}
</style>
<defs>
</defs>
<path class="st0" d="M86.911,43.761h0.575l0.062,0.059l0.065-0.059h0.064c2.114,0,4.027,0.941,5.739,2.825
	c1.021,1.316,1.53,2.612,1.53,3.888v0.824c0,2.287-1.296,4.505-3.889,6.655c-2.424,1.53-4.741,2.296-6.952,2.296H83.85l-0.319,0.059
	v0.118c0,0.786,0.361,1.571,1.084,2.355c0.468,0.354,1.084,0.668,1.851,0.943l0.062-0.059l0.319,0.059h4.145l0.128,0.117v1.001
	l-0.128,0.118H87.04c-2.636,0-4.827-1.256-6.568-3.769c-0.554-1.109-0.831-2.129-0.831-3.062v-7.655
	c0-2.003,1.043-3.789,3.126-5.359C84.179,44.212,85.562,43.761,86.911,43.761 M83.532,48.295v10.718h0.382
	c1.691,0,3.349-0.805,4.976-2.414c1.051-1.237,1.711-2.513,1.976-3.829c0.17-0.657,0.255-1.757,0.255-3.297v-0.177
	c0-2.061-0.701-3.376-2.104-3.945c-0.638-0.275-1.212-0.412-1.722-0.412c-1.626,0-2.838,0.824-3.635,2.473L83.532,48.295z"/>
<path class="st0" d="M103.448,43.761h0.255l0.126,0.117v1.001c0,0.09-0.318,0.148-0.955,0.178c-1.872,0.677-2.807,1.756-2.807,3.238
	v16.547L99.94,64.96h-3.636l-0.127-0.118V50.474c0-2.15,1.169-4.014,3.508-5.595C100.982,44.134,102.235,43.761,103.448,43.761"/>
<path class="st0" d="M116.603,35.846h0.128l0.064,0.059l0.065-0.059h0.637l0.064,0.059l0.062-0.059h2.616l0.127,0.118v28.878
	l-0.127,0.118h-7.91c-2.272,0-4.293-1.06-6.057-3.179c-0.808-1.267-1.213-2.444-1.213-3.534v-7.655c0-2.1,1.085-3.966,3.253-5.594
	c1.5-0.825,2.86-1.237,4.083-1.237h1.721l1.595-0.06v0.06l0.064-0.06h0.702v-7.737L116.603,35.846z M113.797,44.998h-1.212
	c-1.647,0-2.816,0.844-3.507,2.532c-0.085,0.176-0.127,0.432-0.127,0.766v12.13c0,1.512,0.978,2.61,2.932,3.298l0.065-0.059
	l0.319,0.059h4.21V44.939L113.797,44.998z"/>
<path class="st0" d="M128.866,43.761h0.574l0.063,0.059l0.065-0.059h0.063c2.115,0,4.028,0.941,5.739,2.825
	c1.02,1.316,1.531,2.612,1.531,3.888v0.824c0,2.287-1.296,4.505-3.89,6.655c-2.424,1.53-4.741,2.296-6.952,2.296h-0.255
	l-0.319,0.059v0.118c0,0.786,0.361,1.571,1.085,2.355c0.468,0.354,1.083,0.668,1.849,0.943l0.064-0.059l0.319,0.059h4.145
	l0.128,0.117v1.001l-0.128,0.118h-3.954c-2.637,0-4.826-1.256-6.569-3.769c-0.552-1.109-0.829-2.129-0.829-3.062v-7.655
	c0-2.003,1.041-3.789,3.126-5.359C126.133,44.212,127.515,43.761,128.866,43.761 M125.485,48.295v10.718h0.383
	c1.69,0,3.348-0.805,4.974-2.414c1.053-1.237,1.712-2.513,1.978-3.829c0.169-0.657,0.255-1.757,0.255-3.297v-0.177
	c0-2.061-0.703-3.376-2.105-3.945c-0.639-0.275-1.211-0.412-1.722-0.412c-1.627,0-2.838,0.824-3.636,2.473L125.485,48.295z"/>
<path class="st0" d="M65.362,37.901c0.233,0,0.797,1.435,1.693,4.301l6.178,16.902h0.099c3.652-13.62,5.611-20.687,5.878-21.203
	h1.793l0.198,0.151L73.73,65.066h-4.482c-0.134,0-1.263-3.068-3.388-9.206l-6.475-17.883l0.099-0.076H65.362z"/>
<path class="st0" d="M19.216,12.585h0.797c2.372,0,4.477,1.197,6.316,3.59c0.842,1.429,1.262,2.758,1.262,3.988v8.774
	c0,2.449-1.24,4.577-3.722,6.383c-1.352,0.798-2.637,1.195-3.856,1.195h-0.664c-2.858,0-5.186-1.505-6.979-4.52
	c-0.488-1.207-0.732-2.226-0.732-3.058v-8.641c0-2.858,1.506-5.185,4.52-6.98C17.365,12.829,18.385,12.585,19.216,12.585
	 M15.693,17.704v13.693c0,1.662,0.953,2.859,2.858,3.59c0.2,0.088,0.488,0.134,0.865,0.134h0.532c1.572,0,2.746-0.975,3.522-2.927
	l0.067-0.797V17.704c0-1.795-1.02-3.014-3.058-3.656l-0.864-0.133c-1.695,0-2.959,0.93-3.789,2.792L15.693,17.704z"/>
<path class="st0" d="M34.734,12.585h0.864c1.906,0,3.391,0.51,4.455,1.529l-0.931,0.931h-0.067
	c-0.787-0.709-1.629-1.064-2.526-1.064h-0.532c-1.252,0-2.383,0.687-3.39,2.061l-0.266,0.93v0.466c0,1.351,1.462,2.791,4.387,4.32
	c3.235,1.895,4.853,4.067,4.853,6.515v0.664c0,2.371-1.197,4.477-3.59,6.316c-1.429,0.841-2.758,1.262-3.988,1.262h-0.731
	c-1.785,0-3.424-0.664-4.919-1.993l0.997-0.998c1.097,1.064,2.204,1.596,3.324,1.596h0.531c1.74,0,3.091-0.975,4.055-2.926
	c0.133-0.332,0.244-0.886,0.333-1.661c0-1.894-1.042-3.357-3.125-4.387c-2.659-1.297-4.299-2.337-4.919-3.124
	c-0.842-0.986-1.263-2.161-1.263-3.524v-0.465c0-2.437,1.263-4.387,3.788-5.849C32.995,12.784,33.881,12.585,34.734,12.585"/>
<path class="st0" d="M42.996,12.585h0.532l0.067,0.067l0.066-0.067h15.488l0.066,0.067l0.067-0.067h3.258l0.066,0.067l0.066-0.067
	h0.998l0.133,0.133l0.066-0.066h0.066c1.075,0,2.449,0.62,4.122,1.861c1.816,1.784,2.726,3.666,2.726,5.65v16.221l-0.133,0.131
	h-3.79l-0.133-0.131v-18.68c0-1.696-0.975-2.914-2.924-3.657l-1.928-0.133h-0.997l-1.994,0.067v22.403l-0.133,0.131h-3.856
	l-0.132-0.131v-22.47h-7.845v22.47l-0.133,0.131h-3.789l-0.133-0.131V12.718L42.996,12.585z"/>
<path class="st0" d="M79.641,12.585h0.598l0.067,0.067l0.066-0.067h0.067c2.204,0,4.198,1.064,5.982,3.191
	c1.064,1.485,1.595,2.947,1.595,4.387v0.931c0,2.581-1.351,5.085-4.054,7.512c-2.526,1.727-4.941,2.592-7.245,2.592H76.45
	l-0.332,0.067v0.132c0,0.887,0.376,1.773,1.13,2.66c0.488,0.398,1.13,0.752,1.927,1.064l0.067-0.067l0.333,0.067h4.32l0.133,0.132
	v1.131l-0.133,0.131h-4.12c-2.749,0-5.031-1.417-6.848-4.254c-0.577-1.252-0.864-2.403-0.864-3.456v-8.642
	c0-2.26,1.085-4.276,3.257-6.049C76.794,13.095,78.235,12.585,79.641,12.585 M76.119,17.704v12.097h0.399
	c1.762,0,3.489-0.908,5.185-2.725c1.096-1.395,1.783-2.835,2.06-4.32c0.178-0.742,0.266-1.983,0.266-3.722v-0.2
	c0-2.327-0.731-3.812-2.193-4.454c-0.665-0.31-1.263-0.465-1.795-0.465c-1.695,0-2.958,0.93-3.789,2.792L76.119,17.704z"/>
<path class="st0" d="M93.533,2.016h0.066v10.502h6.516l0.132,0.134v1.13l-0.132,0.132h-6.516v16.22c0,1.851,0.355,3.091,1.064,3.723
	c0.676,0.886,1.961,1.329,3.856,1.329l1.662-0.066l0.066,0.066v1.197l-0.132,0.132H97.19c-2.516,0-4.71-1.329-6.581-3.988
	c-0.71-1.185-1.064-2.958-1.064-5.318V13.914h-2.46l-0.133-0.132v-1.13l0.133-0.134h2.46v-0.066l0.066-6.581L93.533,2.016z"/>
<path class="st0" d="M106.759,12.585h0.598l0.067,0.067l0.066-0.067h0.066c2.205,0,4.2,1.064,5.983,3.191
	c1.064,1.485,1.596,2.947,1.596,4.387v0.931c0,2.581-1.352,5.085-4.055,7.512c-2.526,1.727-4.941,2.592-7.246,2.592h-0.266
	l-0.332,0.067v0.132c0,0.887,0.376,1.773,1.129,2.66c0.488,0.398,1.131,0.752,1.929,1.064l0.067-0.067l0.332,0.067h4.32l0.134,0.132
	v1.131l-0.134,0.131h-4.12c-2.749,0-5.031-1.417-6.848-4.254c-0.576-1.252-0.863-2.403-0.863-3.456v-8.642
	c0-2.26,1.085-4.276,3.256-6.049C103.911,13.095,105.352,12.585,106.759,12.585 M103.236,17.704v12.097h0.399
	c1.761,0,3.489-0.908,5.185-2.725c1.097-1.395,1.783-2.835,2.061-4.32c0.176-0.742,0.266-1.983,0.266-3.722v-0.2
	c0-2.327-0.732-3.812-2.194-4.454c-0.665-0.31-1.263-0.465-1.795-0.465c-1.695,0-2.958,0.93-3.789,2.792L103.236,17.704z"/>
<path class="st0" d="M123.994,12.585h0.266l0.133,0.133v1.13c0,0.1-0.332,0.166-0.997,0.199c-1.95,0.765-2.925,1.984-2.925,3.657
	v18.68l-0.133,0.131h-3.789l-0.133-0.131V20.163c0-2.426,1.219-4.532,3.657-6.315C121.424,13.006,122.732,12.585,123.994,12.585"/>
<path class="st0" d="M128.122,1.949h0.2c1.285,0.189,1.927,0.832,1.927,1.928v0.266c-0.287,1.196-0.886,1.794-1.794,1.794h-0.399
	c-1.196-0.287-1.795-0.885-1.795-1.794V3.744c0-0.698,0.421-1.252,1.263-1.662l0.066,0.066
	C127.624,2.016,127.801,1.949,128.122,1.949 M126.394,12.518h3.723l0.132,0.134v23.732l-0.132,0.131h-3.723l-0.133-0.131V12.652
	L126.394,12.518z"/>
<path class="st0" d="M135.654,12.586l0.066,0.066l0.067-0.066h4.387l0.066,0.066l0.067-0.066c0.399,0.044,0.598,0.111,0.598,0.199
	l0.067-0.066h0.066c0.465,0,0.708,0.11,0.731,0.332l0.133-0.132c1.185,0.387,2.316,1.096,3.39,2.126
	c1.462,1.673,2.194,3.38,2.194,5.118v16.221l-0.133,0.132h-8.242c-2.494,0-4.643-1.285-6.449-3.855
	c-0.754-1.308-1.13-2.614-1.13-3.923v-0.597c0-1.419,0.51-2.86,1.529-4.321c0.688-0.831,1.197-1.341,1.529-1.53
	c0.798-0.664,1.596-1.107,2.393-1.329l0.067,0.066c0.067-0.221,0.797-0.376,2.194-0.464h0.93l0.332-0.067v0.067l0.067-0.067h0.133
	l0.066,0.067l0.067-0.067h0.133l0.066,0.067l0.067-0.067h0.398l0.067,0.067l0.067-0.067h0.132l0.066,0.067l0.067-0.067h0.399
	l0.066,0.067l0.067-0.067h0.399l0.066,0.067l0.067-0.067h0.465v-2.791c0-1.685-0.953-2.881-2.858-3.591
	c-0.2-0.088-0.487-0.132-0.865-0.132h-4.054l-0.133-0.134v-1.129L135.654,12.586z M135.521,26.81v3.457
	c0,2.316,0.709,3.778,2.127,4.387l0.997,0.466l0.066-0.067l0.333,0.067h4.454l-0.067-8.11v-5.119h-3.257
	c-2.205,0-3.667,0.842-4.387,2.526C135.61,25.06,135.521,25.858,135.521,26.81"/>
<path class="st0" d="M13.502,0H16.7l0.118,0.119L16.937,0h4.146l0.236,0.237v1.894l-0.236,0.238l-7.818,0.118
	c-1.56,0-3.218,1.027-4.974,3.08C7.58,6.85,7.224,8.035,7.224,9.12v24.399c0,3.039,1.816,5.251,5.449,6.633l0.119-0.119l0.591,0.119
	h7.7l0.236,0.236v2.014l-0.236,0.237h-7.581c-4.323,0-8.073-2.171-11.252-6.516C0.75,33.716,0,31.386,0,29.136V13.739
	C0,9.08,2.29,5.172,6.87,2.013c1.026-0.67,2.526-1.262,4.5-1.776v0.119C11.745,0.119,12.456,0,13.502,0"/>
<rect x="0.001" y="0.001" class="st1" width="147.486" height="65.065"/>
</svg>